Lab_2/Lab_2/Lab_2.sim/sim_1/synth/timing/xsim/simulate.log
Vivado Simulator 2019.2
Time resolution is 1 ps
Time =                    0 : A = 0011, B = 0010, type = 00, AN = xxxxxxxx, seg = xxxxxxx
Time =                    3 : A = 0011, B = 0010, type = 00, AN = 111111xx, seg = xxxxxxx
Time =                    4 : A = 0011, B = 0010, type = 00, AN = 111111x0, seg = xxxxxxx
Time =                    4 : A = 0011, B = 0010, type = 00, AN = 11111110, seg = xxxxxxx
Time =                    8 : A = 0011, B = 0010, type = 00, AN = 11111110, seg = 0xx00xx
Time =                    8 : A = 0011, B = 0010, type = 00, AN = 11111110, seg = 00x001x
Time =                    8 : A = 0011, B = 0010, type = 00, AN = 11111110, seg = 001001x
Time =                    9 : A = 0011, B = 0010, type = 00, AN = 11111110, seg = 0010010
Time =                   10 : A = 0100, B = 0001, type = 01, AN = 11111110, seg = 0010010
Time =                   16 : A = 0100, B = 0001, type = 01, AN = 11111110, seg = 0011010
Time =                   17 : A = 0100, B = 0001, type = 01, AN = 11111110, seg = 0111010
Time =                   17 : A = 0100, B = 0001, type = 01, AN = 11111110, seg = 1111010
Time =                   17 : A = 0100, B = 0001, type = 01, AN = 11111110, seg = 1111000
Time =                   17 : A = 0100, B = 0001, type = 01, AN = 11111110, seg = 1111001
Time =                   17 : A = 0100, B = 0001, type = 01, AN = 11111110, seg = 1101001
Time =                   17 : A = 0100, B = 0001, type = 01, AN = 11111110, seg = 1111001
Time =                   17 : A = 0100, B = 0001, type = 01, AN = 11111110, seg = 1110001
Time =                   17 : A = 0100, B = 0001, type = 01, AN = 11111110, seg = 1111001
Time =                   17 : A = 0100, B = 0001, type = 01, AN = 11111110, seg = 1011001
Time =                   17 : A = 0100, B = 0001, type = 01, AN = 11111110, seg = 1111001
Time =                   17 : A = 0100, B = 0001, type = 01, AN = 11111110, seg = 0111001
Time =                   18 : A = 0100, B = 0001, type = 01, AN = 11111110, seg = 1111001
Time =                   18 : A = 0100, B = 0001, type = 01, AN = 11111110, seg = 0111001
Time =                   18 : A = 0100, B = 0001, type = 01, AN = 11111110, seg = 0111000
Time =                   18 : A = 0100, B = 0001, type = 01, AN = 11111110, seg = 0111001
Time =                   18 : A = 0100, B = 0001, type = 01, AN = 11111110, seg = 0110001
Time =                   18 : A = 0100, B = 0001, type = 01, AN = 11111110, seg = 0111001
Time =                   18 : A = 0100, B = 0001, type = 01, AN = 11111110, seg = 0110001
Time =                   18 : A = 0100, B = 0001, type = 01, AN = 11111110, seg = 0110000
Time =                   18 : A = 0100, B = 0001, type = 01, AN = 11111110, seg = 0110001
Time =                   18 : A = 0100, B = 0001, type = 01, AN = 11111110, seg = 0110000
Time =                   20 : A = 0110, B = 0001, type = 10, AN = 11111110, seg = 0110000
Time =                   26 : A = 0110, B = 0001, type = 10, AN = 11111110, seg = 1110000
Time =                   27 : A = 0110, B = 0001, type = 10, AN = 11111110, seg = 1111000
Time =                   27 : A = 0110, B = 0001, type = 10, AN = 11111110, seg = 0111000
Time =                   27 : A = 0110, B = 0001, type = 10, AN = 11111110, seg = 0111010
Time =                   27 : A = 0110, B = 0001, type = 10, AN = 11111110, seg = 0110010
Time =                   27 : A = 0110, B = 0001, type = 10, AN = 11111110, seg = 0010011
Time =                   27 : A = 0110, B = 0001, type = 10, AN = 11111110, seg = 0000011
Time =                   27 : A = 0110, B = 0001, type = 10, AN = 11111110, seg = 0000010
Time =                   27 : A = 0110, B = 0001, type = 10, AN = 11111110, seg = 0010000
Time =                   28 : A = 0110, B = 0001, type = 10, AN = 11111110, seg = 0010001
Time =                   28 : A = 0110, B = 0001, type = 10, AN = 11111110, seg = 0010000
Time =                   30 : A = 0011, B = 0010, type = 11, AN = 11111110, seg = 0010000
Time =                   36 : A = 0011, B = 0010, type = 11, AN = 11111110, seg = 0000000
Time =                   36 : A = 0011, B = 0010, type = 11, AN = 11111110, seg = 0100010
Time =                   37 : A = 0011, B = 0010, type = 11, AN = 11111110, seg = 0100110
Time =                   37 : A = 0011, B = 0010, type = 11, AN = 11111110, seg = 0000100
Time =                   37 : A = 0011, B = 0010, type = 11, AN = 11111110, seg = 0000110
Time =                   37 : A = 0011, B = 0010, type = 11, AN = 11111110, seg = 0000010
Time =                   37 : A = 0011, B = 0010, type = 11, AN = 11111110, seg = 0000011
Time =                   37 : A = 0011, B = 0010, type = 11, AN = 11111110, seg = 0000010
Time =                   38 : A = 0011, B = 0010, type = 11, AN = 11111110, seg = 0010010
Time =                   38 : A = 0011, B = 0010, type = 11, AN = 11111110, seg = 0000010
Time =                   38 : A = 0011, B = 0010, type = 11, AN = 11111110, seg = 1001010
Time =                   38 : A = 0011, B = 0010, type = 11, AN = 11111110, seg = 0000010
Time =                   38 : A = 0011, B = 0010, type = 11, AN = 11111110, seg = 0000000
Time =                   38 : A = 0011, B = 0010, type = 11, AN = 11111110, seg = 0000010
Time =                   38 : A = 0011, B = 0010, type = 11, AN = 11111110, seg = 0100010
Time =                   38 : A = 0011, B = 0010, type = 11, AN = 11111110, seg = 0000010
Time =                   38 : A = 0011, B = 0010, type = 11, AN = 11111110, seg = 0000110
Time =                   38 : A = 0011, B = 0010, type = 11, AN = 11111110, seg = 0000010
Time =                   38 : A = 0011, B = 0010, type = 11, AN = 11111110, seg = 0000000
Time =                   38 : A = 0011, B = 0010, type = 11, AN = 11111110, seg = 0000010
$finish called at time : 40 ns : File "D:/Courses/CS_Cousrces/2024 Fall Digital Design/Lab_2/Lab_2/Lab_2.srcs/sim_1/new/sim_alu.v" Line 52
